<svg width="50" height="50" viewBox="0 0 50 50" fill="none" xmlns="http://www.w3.org/2000/svg">
<path d="M38.8889 13.8889L34.9722 17.8056L39.3611 22.2222H16.6667V27.7778H39.3611L34.9722 32.1667L38.8889 36.1111L50 25L38.8889 13.8889ZM5.55556 5.55556H25V0H5.55556C2.5 0 0 2.5 0 5.55556V44.4444C0 47.5 2.5 50 5.55556 50H25V44.4444H5.55556V5.55556Z" fill="white"/>
</svg>
