<svg width="42" height="26" viewBox="0 0 42 26" fill="none" xmlns="http://www.w3.org/2000/svg">
<path d="M15.5833 22.5833L6 13L15.5833 3.41667L12.6667 0.5L0.166668 13L12.6667 25.5L15.5833 22.5833ZM26.4167 22.5833L36 13L26.4167 3.41667L29.3333 0.5L41.8333 13L29.3333 25.5L26.4167 22.5833Z" fill="white"/>
</svg>
