<svg width="38" height="38" viewBox="0 0 38 38" fill="none" xmlns="http://www.w3.org/2000/svg">
<path d="M33.5833 0.25H4.41667C2.125 0.25 0.25 2.125 0.25 4.41667V33.5833C0.25 35.875 2.125 37.75 4.41667 37.75H33.5833C35.875 37.75 37.75 35.875 37.75 33.5833V4.41667C37.75 2.125 35.875 0.25 33.5833 0.25ZM33.5833 33.5833H4.41667V4.41667H33.5833V33.5833Z" fill="white"/>
<path d="M12.75 19H8.58334V29.4167H12.75V19Z" fill="white"/>
<path d="M29.4167 8.58337H25.25V29.4167H29.4167V8.58337Z" fill="white"/>
<path d="M21.0833 23.1666H16.9167V29.4166H21.0833V23.1666Z" fill="white"/>
<path d="M21.0833 14.8334H16.9167V19H21.0833V14.8334Z" fill="white"/>
</svg>
