<svg width="50" height="56" viewBox="0 0 50 56" fill="none" xmlns="http://www.w3.org/2000/svg">
<path d="M45.8333 4.16667L41.6667 0L37.5 4.16667L33.3333 0L29.1667 4.16667L25 0L20.8333 4.16667L16.6667 0L12.5 4.16667L8.33333 0V38.8889H0V47.2222C0 51.8333 3.72222 55.5556 8.33333 55.5556H41.6667C46.2778 55.5556 50 51.8333 50 47.2222V0L45.8333 4.16667ZM33.3333 50H8.33333C6.80556 50 5.55556 48.75 5.55556 47.2222V44.4444H33.3333V50ZM44.4444 47.2222C44.4444 48.75 43.1944 50 41.6667 50C40.1389 50 38.8889 48.75 38.8889 47.2222V38.8889H13.8889V8.33333H44.4444V47.2222Z" fill="white"/>
<path d="M33.3333 13.8889H16.6667V19.4445H33.3333V13.8889Z" fill="white"/>
<path d="M41.6667 13.8889H36.1111V19.4445H41.6667V13.8889Z" fill="white"/>
<path d="M33.3333 22.2222H16.6667V27.7777H33.3333V22.2222Z" fill="white"/>
<path d="M41.6667 22.2222H36.1111V27.7777H41.6667V22.2222Z" fill="white"/>
</svg>
